module mireg

go 1.14

require (
	github.com/google/uuid v1.3.0
	github.com/gorilla/context v1.1.1 // indirect
	github.com/gorilla/handlers v1.5.1
	github.com/gorilla/mux v1.8.0 // indirect
	github.com/gorilla/pat v1.0.1
)
